// Jest Snapshot v1, https://goo.gl/fbAQLP

exports[`Render Tabs component as a link using linkComponent property 1`] = `
<div
  class="styled__Wrapper-ep9ksu-0 ipYXdT"
>
  <a
    class="styled__Tab-ep9ksu-1 hCXUwJ styled__LinkContainer-sc-63q7q6-0 kuMHIW"
    href="/internal/link/path"
    to="/internal/link/path"
  >
    Ссылка внутренняя
  </a>
  <a
    class="styled__Tab-ep9ksu-1 hCXUwJ styled__LinkContainer-sc-63q7q6-0 kuMHIW"
    href="http://example.com"
    rel="noopener noreferrer"
    target="_blank"
  >
    Ссылка внешняя
  </a>
</div>
`;

exports[`Render Tabs component as a link without active tab 1`] = `
<div
  class="styled__Wrapper-ep9ksu-0 ipYXdT"
>
  <a
    class="styled__Tab-ep9ksu-1 hCXUwJ"
    href="/internal/link/path"
    to="/internal/link/path"
  >
    Ссылка внутренняя
  </a>
  <a
    class="styled__Tab-ep9ksu-1 hCXUwJ"
    href="http://example.com"
    rel="noopener noreferrer"
    target="_blank"
  >
    Ссылка внешняя
  </a>
</div>
`;

exports[`Render Tabs component with active tab 1`] = `
<div
  class="styled__Wrapper-ep9ksu-0 ipYXdT"
>
  <button
    class="styled__Tab-ep9ksu-1 czggyE"
  >
    Табы
  </button>
  <button
    class="styled__Tab-ep9ksu-1 hCXUwJ"
  >
    С работой
  </button>
  <button
    class="styled__Tab-ep9ksu-1 hCXUwJ"
  >
    На onSelect
  </button>
</div>
`;
