{
    "fullTitle": "ГРЛС",
    "shortTitle": "ГРЛС",
    "url": "http://grls.rosminzdrav.ru",

    "fields": {
        "trade_name": {
            "id": "trade_name",
            "title": "Торговое наименование",
            "type": "string"
        },
        "dosage_form": {
            "id": "dosage_form",
            "title": "Форма выпуска",
            "type": "object"
        },
        "holder": {
            "id": "holder",
            "title": "Держатель РУ",
            "type": "object"
        },
        "price": {
            "id": "price",
            "title": "Цена",
            "type": "object"
        },
        "reg_date": {
            "id": "reg_date",
            "title": "Дата регистрации",
            "type": "date"
        },
        "man_forms": {
            "id": "man_forms",
            "title": "Формы производста",
            "type": "array"
        },
        "ptg": {
            "id": "ptg",
            "title": "Фармако-терапевтическая группа",
            "type": "string"
        },
        "is_life_important": {
            "id": "is_life_important",
            "title": "Наличие в перечне ЖНВЛП",
            "type": "bool"
        },
        "drugs_presence": {
            "id": "drugs_presence",
            "title": "В перечне наркосодержащих",
            "type": "enum",
            "options": {
                "$ref": "#/enums/drugs_presence"
            }
        }
    }
}
