// Jest Snapshot v1, https://goo.gl/fbAQLP

exports[`Render Icon with Excel icon 1`] = `
<button
  class="styled__IconContainer-d9h1dr-0 bMHUuZ"
  type="button"
>
  <svg
    fill="none"
    height="16"
    viewBox="0 0 16 16"
    width="16"
    xmlns="http://www.w3.org/2000/svg"
  >
    <path
      d="M10 2V0L0 2v12l10 2v-2h6V2h-6zm-2 9H6.5L5 8.9 3.5 11H2l2.2-3L2 5h1.5L5 7.1 6.5 5H8L5.8 8 8 11zm4 2h-2v-1h2v1zm0-2h-2v-1h2v1zm0-2h-2V8h2v1zm0-2h-2V6h2v1zm0-2h-2V4h2v1zm3 8h-2v-1h2v1zm0-2h-2v-1h2v1zm0-2h-2V8h2v1zm0-2h-2V6h2v1zm0-2h-2V4h2v1z"
    />
  </svg>
</button>
`;

exports[`Render Icon with Excel icon and with background 1`] = `
<button
  class="styled__IconContainer-d9h1dr-0 kAlFpu"
  type="button"
>
  <svg
    fill="none"
    height="16"
    viewBox="0 0 16 16"
    width="16"
    xmlns="http://www.w3.org/2000/svg"
  >
    <path
      d="M10 2V0L0 2v12l10 2v-2h6V2h-6zm-2 9H6.5L5 8.9 3.5 11H2l2.2-3L2 5h1.5L5 7.1 6.5 5H8L5.8 8 8 11zm4 2h-2v-1h2v1zm0-2h-2v-1h2v1zm0-2h-2V8h2v1zm0-2h-2V6h2v1zm0-2h-2V4h2v1zm3 8h-2v-1h2v1zm0-2h-2v-1h2v1zm0-2h-2V8h2v1zm0-2h-2V6h2v1zm0-2h-2V4h2v1z"
    />
  </svg>
</button>
`;
